70	JJ NN 
66	NN 
44	NNS 
38	NN NN 
31	JJ NNS 
30	NN NNS 
17	NNP 
10	VBG 
9	VBN 
9	NNP NNP 
9	JJ NN NN 
9	JJ 
8	NNP NNP NNP 
8	JJ NN NNS 
7	NNP NN 
7	NN NN NN 
6	VBN NN 
6	NN NN NNS 
5	VB 
5	NNP NNP NNP NNP 
5	NNP CD 
5	JJ JJ NN 
4	VBG NNS 
4	NNS CC NNS 
4	NN IN NNS 
4	NN IN NN 
4	JJ JJ NNS 
4	JJ CC JJ NN 
3	VBG NN 
3	NNS IN NN 
3	NNP IN NN 
3	NNP IN DT NN 
3	NNP CD NN 
3	NN CC NN NNS 
3	JJ NNS NN 
3	JJ NNP NNP NNP 
3	JJ CC JJ NNS 
3	CD NNS 
3	CD NNP CD 
3	. 
2	NNS NNS 
2	NNS IN NNS 
2	NNP NNS 
2	NNP NNP NNP VBG NNS NNS CC DT NN TO JJ CC JJ NN 
2	NNP NNP NN 
2	NNP NN NNS 
2	NNP IN DT JJ NNS 
2	NNP IN DT JJ 
2	NNP CD IN NNP 660_EEC_NNP 
2	NNP CD IN DT NNP NNP 
2	NNP CD CD 
2	NNP CC NN NNS 
2	NN JJ NNS 
2	NN IN JJ NNS 
2	NN IN JJ NN 
2	NN IN DT NNS 
2	NN IN DT NN 
2	NN CD 
2	JJ VBN NN 
2	JJ NNS IN NN 
2	JJ NNS CC NN 
2	JJ CC NN NN 
2	JJ CC JJ 
2	CD JJ NNS 
